<svg width="425" height="472" viewBox="0 0 425 472" fill="none" xmlns="http://www.w3.org/2000/svg">
<rect width="425" height="472" fill="#E5E5E5"/>
<rect width="424.8" height="472" fill="white"/>
<path d="M281.368 382C278.42 376.104 276.025 365.602 274.183 350.494C250.415 375.183 222.041 387.527 189.062 387.527C159.582 387.527 135.354 379.236 116.377 362.654C97.584 345.888 88.1875 324.7 88.1875 299.09C88.1875 267.952 99.9792 243.816 123.562 226.682C147.33 209.363 180.678 200.703 223.607 200.703H273.354V177.212C273.354 159.34 268.01 145.153 257.324 134.651C246.638 123.965 230.885 118.622 210.065 118.622C191.825 118.622 176.533 123.228 164.188 132.44C151.844 141.653 145.672 152.799 145.672 165.881H94.2676C94.2676 150.957 99.5186 136.586 110.021 122.768C120.707 108.765 135.078 97.7103 153.134 89.6035C171.374 81.4967 191.365 77.4434 213.105 77.4434C247.559 77.4434 274.551 86.1029 294.081 103.422C313.611 120.557 323.744 144.232 324.481 174.448V312.079C324.481 339.532 327.982 361.365 334.983 377.578V382H281.368ZM196.523 343.032C212.553 343.032 227.753 338.887 242.124 330.596C256.495 322.305 266.905 311.526 273.354 298.261V236.907H233.28C170.637 236.907 139.315 255.24 139.315 291.904C139.315 307.934 144.659 320.462 155.345 329.49C166.031 338.518 179.757 343.032 196.523 343.032Z" fill="black"/>
<path d="M281.368 382L280.474 382.447L280.75 383H281.368V382ZM274.183 350.494L275.175 350.373L274.921 348.286L273.462 349.801L274.183 350.494ZM116.377 362.654L115.711 363.401L115.719 363.407L116.377 362.654ZM123.562 226.682L124.15 227.491L124.151 227.49L123.562 226.682ZM273.354 200.703V201.703H274.354V200.703H273.354ZM257.324 134.651L256.617 135.359L256.623 135.365L257.324 134.651ZM164.188 132.44L164.787 133.242L164.188 132.44ZM145.672 165.881V166.881H146.672V165.881H145.672ZM94.2676 165.881H93.2676V166.881H94.2676V165.881ZM110.021 122.768L109.226 122.161L109.224 122.162L110.021 122.768ZM153.134 89.6035L152.728 88.6897L152.724 88.6912L153.134 89.6035ZM294.081 103.422L293.418 104.17L293.422 104.174L294.081 103.422ZM324.481 174.448H325.481V174.436L325.481 174.424L324.481 174.448ZM334.983 377.578H335.983V377.371L335.901 377.182L334.983 377.578ZM334.983 382V383H335.983V382H334.983ZM273.354 298.261L274.253 298.698L274.354 298.491V298.261H273.354ZM273.354 236.907H274.354V235.907H273.354V236.907ZM282.263 381.553C279.399 375.826 277.017 365.477 275.175 350.373L273.19 350.615C275.033 365.727 277.442 376.383 280.474 382.447L282.263 381.553ZM273.462 349.801C249.875 374.302 221.758 386.527 189.062 386.527V388.527C222.325 388.527 250.955 376.064 274.903 351.188L273.462 349.801ZM189.062 386.527C159.781 386.527 135.8 378.298 117.035 361.901L115.719 363.407C134.909 380.175 159.384 388.527 189.062 388.527V386.527ZM117.043 361.908C98.4664 345.335 89.1875 324.42 89.1875 299.09H87.1875C87.1875 324.979 96.7015 346.441 115.711 363.4L117.043 361.908ZM89.1875 299.09C89.1875 268.247 100.846 244.423 124.15 227.491L122.975 225.873C99.1124 243.21 87.1875 267.658 87.1875 299.09H89.1875ZM124.151 227.49C147.686 210.341 180.797 201.703 223.607 201.703V199.703C180.56 199.703 146.975 208.384 122.974 225.873L124.151 227.49ZM223.607 201.703H273.354V199.703H223.607V201.703ZM274.354 200.703V177.212H272.354V200.703H274.354ZM274.354 177.212C274.354 159.128 268.939 144.664 258.025 133.938L256.623 135.365C267.082 145.643 272.354 159.553 272.354 177.212H274.354ZM258.031 133.944C247.096 123.009 231.048 117.622 210.065 117.622V119.622C230.722 119.622 246.18 124.921 256.617 135.358L258.031 133.944ZM210.065 117.622C191.651 117.622 176.138 122.275 163.59 131.639L164.787 133.242C176.928 124.181 192 119.622 210.065 119.622V117.622ZM163.59 131.639C151.044 141.002 144.672 152.425 144.672 165.881H146.672C146.672 153.174 152.644 142.303 164.787 133.242L163.59 131.639ZM145.672 164.881H94.2676V166.881H145.672V164.881ZM95.2676 165.881C95.2676 151.21 100.425 137.047 110.817 123.373L109.224 122.162C98.6126 136.125 93.2676 150.704 93.2676 165.881H95.2676ZM110.815 123.374C121.389 109.52 135.62 98.5629 153.543 90.5158L152.724 88.6912C134.535 96.8576 120.025 108.01 109.226 122.161L110.815 123.374ZM153.54 90.5173C171.641 82.4723 191.492 78.4434 213.105 78.4434V76.4434C191.237 76.4434 171.107 80.5212 152.728 88.6897L153.54 90.5173ZM213.105 78.4434C247.394 78.4434 274.122 87.0593 293.418 104.17L294.745 102.674C274.98 85.1464 247.724 76.4434 213.105 76.4434V78.4434ZM293.422 104.174C312.707 121.094 322.75 144.486 323.482 174.473L325.481 174.424C324.739 143.978 314.515 120.02 294.741 102.67L293.422 104.174ZM323.481 174.448V312.079H325.481V174.448H323.481ZM323.481 312.079C323.481 339.6 326.988 361.586 334.065 377.975L335.901 377.182C328.976 361.143 325.481 339.463 325.481 312.079H323.481ZM333.983 377.578V382H335.983V377.578H333.983ZM334.983 381H281.368V383H334.983V381ZM196.523 344.032C212.734 344.032 228.106 339.837 242.624 331.462L241.624 329.73C227.4 337.936 212.371 342.032 196.523 342.032V344.032ZM242.624 331.462C257.146 323.084 267.706 312.165 274.253 298.698L272.454 297.824C266.104 310.888 255.845 321.525 241.624 329.73L242.624 331.462ZM274.354 298.261V236.907H272.354V298.261H274.354ZM273.354 235.907H233.28V237.907H273.354V235.907ZM233.28 235.907C201.894 235.907 178.19 240.494 162.302 249.793C146.33 259.141 138.315 273.221 138.315 291.904H140.315C140.315 273.923 147.961 260.504 163.312 251.52C178.745 242.487 202.023 237.907 233.28 237.907V235.907ZM138.315 291.904C138.315 308.18 143.754 321.007 154.699 330.254L155.99 328.726C145.563 319.917 140.315 307.687 140.315 291.904H138.315ZM154.699 330.254C165.6 339.463 179.57 344.032 196.523 344.032V342.032C179.944 342.032 166.462 337.573 155.99 328.726L154.699 330.254Z" fill="black"/>
</svg>
